module tournies

require (
	github.com/go-sql-driver/mysql v1.4.1 // indirect
	github.com/gorilla/context v1.1.1 // indirect
	github.com/gorilla/mux v1.6.2
	github.com/jmoiron/sqlx v1.2.0
	github.com/lib/pq v1.0.0
	github.com/mattn/go-sqlite3 v1.10.0 // indirect
	google.golang.org/appengine v1.4.0 // indirect
)
